﻿{
    "components": {
        "configs": [
            {
                "path": "../components/components.json",
                "root": "../components/"
            }
        ]
    },
    "base": {
        "path": "../lib/BASE/BASE.js",
        "namespaces": {
            "components": "../components",
            "demos":  "./"
        },
		"objects": {
		    "jQuery.fn.select2":"../plugins/select2351/select2.js"
		},
        "root": "../lib/BASE/"
    },
    "css": {
        "files": ["../css/material.css", "../css/reset-min.css"]
    }
}